%YAML 1.1
%TAG !u! tag:unity3d.com,2011:
--- !u!1045 &1
EditorBuildSettings:
  m_ObjectHideFlags: 0
  serializedVersion: 2
  m_Scenes:
  - enabled: 1
    path: Assets/_DONT TOUCH/Scenes/Scene Level Select.unity
    guid: bd7beb6c48eab064eab5600daed7f0dd
  - enabled: 1
    path: Assets/SHMUP FINAL/Scene Level 1.unity
    guid: 36d2288b6007a04459ecf5a90deefce2
  - enabled: 1
    path: Assets/SHMUP FINAL/Scene Level 2.unity
    guid: 952c7095cb5bd2d4a8fe708d647db9b2
  - enabled: 1
    path: Assets/SHMUP FINAL/Scene Level 3.unity
    guid: 41b1104f06a6d1b4a8d2de8727db21bf
  - enabled: 1
    path: Assets/SHMUP FINAL/Scene Level 4.unity
    guid: 635bc00c4c014364b8cbdc3dcdd8eb8c
  - enabled: 1
    path: Assets/_DONT TOUCH/Scenes/Scene End Game.unity
    guid: 79dcb463fb4db6241a9b16f963c9485f
